Seminarski123--novi.utf8
…
    NA    engine_capacit,            .

med = median(carSubset$engine_capacity, na.rm=TRUE)
print(med)

## [1] 2

carSubset %>% group_by(engine_capacity) %>% count(engine_capacity, sort= TRUE)

## # A tibble: 62 x 2
## # Groups:   engine_capacity [62]
##    engine_capacity     n
##              <dbl> <int>
##  1             2    7670
##  2             1.6  6188
##  3             1.8  4244
##  4             2.5  2520
##  5             1.4  2394
##  6             1.9  2304
##  7             2.2  1852
##  8             2.4  1596
##  9             3    1520
## 10             1.5  1461
## # ... with 52 more rows
…
